www.66tycvip.com
www.77tycvip.com
www.88tycvip.com
www.99tycvip.com
www.58tycvip.com
www.91tycvip.com
www.20050.com
www.334hu.com
www.696dd.com
www.346c.com
www.990gg.com
www.990nn.com
www.990ww.com
www.991nn.com
www.991ww.com
www.993nn.com
www.994uu.com
www.994pp.com
www.994mm.com
www.994gg.com
www.994ff.com
www.994ww.com
www.997pp.com
www.998rr.com
www.880rr.com
www.880ff.com
www.880zz.com
www.881ff.com
www.881ww.com
www.881nn.com
www.881jj.com
www.882ww.com
www.882aa.com
www.881rr.com
www.883uu.com
www.13mp4.com
www.14mp4.com
www.15mp4.com
www.11img.com
www.13img.com
www.12img.com
www.14img.com
www.884uu.com
www.884ff.com
www.884yy.com
www.885nn.com
www.884rr.com
www.887nn.com
www.221zz.com
www.219dd.com
www.221uu.com
www.221rr.com
www.660aa.com
www.660rr.com
www.660ww.com
www.660ff.com
www.661ww.com
www.662ww.com
www.663gg.com
www.663ff.com
www.663nn.com
www.663rr.com
www.664tt.com
www.664yy.com
www.664aa.com
www.665mm.com
www.665nn.com
www.665ww.com
www.669qq.com
www.669nn.com
www.4hu12.com
www.4hu22.com
www.4hu25.com
www.4hu27.com
www.4hu29.com
www.4hu33.com
www.4hu35.com
www.4hu48.com
www.4hu64.com
www.4hu66.com
www.4hu69.com
www.4hu70.com
www.4hu71.com
www.4hu72.com
www.4hu73.com
www.4hu75.com
www.4hu76.com
www.4hu77.com
www.4hu78.com
www.4hu79.com
www.4hu80.com
www.4hu81.com
www.4hu82.com
www.4hu83.com
www.4hu84.com
www.264z.com
www.409e.com
www.52h.bet
www.502hh.com
www.986hh.com
www.978hh.com
www.441jj.com
www.446jj.com
www.447jj.com
www.502jj.com
www.505jj.com
www.616jj.com
www.626jj.com
www.646jj.com
www.656jj.com
www.737jj.com
www.757jj.com
www.929jj.com
www.949jj.com
www.994jj.com
www.248xx.com
www.304xx.com
www.416xx.com
www.428xx.com
www.525xx.com
www.534xx.com
www.756kk.com
www.5151hu.com
www.111hgvip.com
www.222hgvip.com
www.666hgvip.com
www.777hgvip.com
www.888hgvip.com
www.999hgvip.com
www.55hgvip.com
www.9527dns.com
www.88hgpt.com
www.88hgdc.com
www.68tycvip.com
www.98tycvip.com
www.avdzyx.com
www.11dzyx.com
www.22dzyx.com
www.33dzyx.com
www.44dzyx.com
www.55dzyx.com
www.66dzyx.com
www.77dzyx.com
www.88dzyx.com
www.99dzyx.com
www.00sihu.com
www.01sihu.com
www.04sihu.com
www.05sihu.com
www.06sihu.com
www.07sihu.com
www.08sihu.com
www.09sihu.com
www.11sihu.com
www.16sihu.com
www.17sihu.com
www.18sihu.com
www.21sihu.com
www.22sihu.com
www.24sihu.com
www.25sihu.com
www.26sihu.com
www.27sihu.com
www.28sihu.com
www.29sihu.com
www.32sihu.com
www.34sihu.com
www.35sihu.com
www.42sihu.com
www.43sihu.com
www.48sihu.com
www.50sihu.com
www.53sihu.com
www.57sihu.com
www.59sihu.com
www.63sihu.com
www.65sihu.com
www.66sihu.com
www.67sihu.com
www.74sihu.com
www.78sihu.com
www.79sihu.com
www.80sihu.com
www.83sihu.com
www.84sihu.com
www.86sihu.com
www.87sihu.com
www.89sihu.com
www.90sihu.com
www.95sihu.com
www.96sihu.com
www.99sihu.com
www.4hu86.com
www.989bt.com
www.990bt.com
www.991bt.com
www.994bt.com
www.995bt.com
www.996bt.com
www.997bt.com
www.105sihu.com
www.107sihu.com
www.134sihu.com
www.137sihu.com
www.147sihu.com
www.3393dd.com
www.3553dd.com
www.3933dd.com
www.5155dd.com
www.163sihu.com
www.158sihu.com
www.7977dd.com
www.5559dd.com
www.172sihu.com
www.7577dd.com
www.160sihu.com
www.157sihu.com
www.5955dd.com
www.7979dd.com
www.171sihu.com
www.74ve.com
www.16mp4.com
www.663ww.com
www.02sihu.com
www.993bt.com
www.9997dd.com
www.179sihu.com
www.9799dd.com
www.9393dd.com
www.9959dd.com
www.194sihu.com
www.181sihu.com
www.624r.com
www.462r.com
www.402j.com
www.480r.com
www.284t.com
www.482e.com
www.406p.com
www.406q.com
www.482d.com
www.624d.com
www.624v.com
www.482q.com
www.462f.com
www.460p.com
www.624q.com
www.624m.com
www.264j.com
www.284p.com
www.264q.com
www.462n.com
www.204r.com
www.642e.com
www.642n.com
www.642p.com
www.642y.com
www.642z.com
www.640n.com
www.640q.com
www.640r.com
www.684e.com
www.684u.com
www.684v.com
www.684z.com
www.604p.com
www.604r.com
www.604v.com
www.604y.com
www.842n.com
www.842p.com
www.842q.com
www.842y.com
www.842z.com
www.846d.com
www.846e.com
www.846g.com
www.846i.com
www.846m.com
www.846n.com
www.846q.com
www.846r.com
www.846u.com
www.846v.com
www.349tv.com
www.376hh.com
www.387hh.com
www.329hh.com
www.490tv.com
www.167hh.com
www.392hh.com
www.346hh.com
www.492tv.com
www.302hh.com
www.148tv.com
www.193hh.com
www.367hh.com
www.489tv.com
www.484tv.com
www.494tv.com
www.907tv.com
www.325hh.com
www.498tv.com
www.397hh.com
www.142tv.com
www.352hh.com
www.460tv.com
www.439tv.com
www.497tv.com
www.493tv.com
www.102hh.com
www.104hh.com
www.905tv.com
www.396hh.com
www.410tv.com
www.304hh.com
www.103hh.com
www.349hh.com
www.149tv.com
www.195hh.com
www.183hh.com
www.378hh.com
www.194tv.com
www.408hh.com
www.547tv.com
www.942tv.com
www.548tv.com
www.306hh.com
www.606tv.com
www.241tv.com
www.284tv.com
www.141hh.com
www.491tv.com
www.413hh.com
www.146tv.com
www.200sihu.com
www.202sihu.com
www.206sihu.com
www.209sihu.com
www.213sihu.com
www.228sihu.com
www.229sihu.com
www.231sihu.com
www.239sihu.com
www.241sihu.com
www.243sihu.com
www.245sihu.com
www.246sihu.com
www.249sihu.com
www.250sihu.com
www.251sihu.com
www.253sihu.com
www.254sihu.com
www.256sihu.com
www.257sihu.com
www.259sihu.com
www.263sihu.com
www.264sihu.com
www.269sihu.com
www.275sihu.com
www.277sihu.com
www.278sihu.com
www.279sihu.com
www.280sihu.com
www.281sihu.com
www.291sihu.com
www.294sihu.com
www.298sihu.com
www.299sihu.com
www.129hk.com
www.145hk.com
www.151hk.com
www.154hk.com
www.164hk.com
www.172hk.com
www.174hk.com
www.187hk.com
www.192hk.com
www.193hk.com
www.194hk.com
www.196hk.com
www.197hk.com
www.201hk.com
www.203hk.com
www.204hk.com
www.205hk.com
www.208hk.com
www.209hk.com
www.210hk.com
www.217hk.com
www.224hk.com
www.231hk.com
www.239hk.com
www.242hk.com
www.243hk.com
www.249hk.com
www.251hk.com
www.253hk.com
www.254hk.com
www.255hk.com
www.257hk.com
www.262hk.com
www.263hk.com
www.264hk.com
www.267hk.com
www.269hk.com
www.270hk.com
www.273hk.com
www.274hk.com
www.275hk.com
www.276hk.com
www.280hk.com
www.282hk.com
www.283hk.com
www.289hk.com
www.293hk.com
www.294hk.com
www.295hk.com
www.297hk.com
www.299hk.com
www.301hk.com
www.302hk.com
www.303hk.com
www.305hk.com
www.306hk.com
www.316hk.com
www.317hk.com
www.320hk.com
www.322hk.com
www.324hk.com
www.325hk.com
www.327hk.com
www.329hk.com
www.346hk.com
www.349hk.com
www.352hk.com
www.354hk.com
www.356hk.com
www.366hk.com
www.367hk.com
www.370hk.com
www.371hk.com
www.372hk.com
www.373hk.com
www.374hk.com
www.376hk.com
www.379hk.com
www.381hk.com
www.387hk.com
www.391hk.com
www.392hk.com
www.394hk.com
www.395hk.com
www.396hk.com
www.398hk.com
www.399hk.com
www.402hk.com
www.405hk.com
www.406hk.com
www.407hk.com
www.412hk.com
www.413hk.com
www.415hk.com
www.416hk.com
www.417hk.com
www.418hk.com
www.421hk.com
www.423hk.com
www.424hk.com
www.425hk.com
www.426hk.com
www.427hk.com
www.429hk.com
www.430hk.com
www.432hk.com
www.434hk.com
www.435hk.com
www.436hk.com
www.438hk.com
www.439hk.com
www.442hk.com
www.446hk.com
www.447hk.com
www.448hk.com
www.449hk.com
www.452hk.com
www.454hk.com
www.455hk.com
www.457hk.com
www.458hk.com
www.459hk.com
www.461hk.com
www.462hk.com
www.463hk.com
www.302sihu.com
www.304sihu.com
www.310sihu.com
www.311sihu.com
www.321sihu.com
www.323sihu.com
www.324sihu.com
www.326sihu.com
www.329sihu.com
www.350sihu.com
www.351sihu.com
www.354sihu.com
www.373sihu.com
www.374sihu.com
www.377sihu.com
www.387sihu.com
www.390sihu.com
www.391sihu.com
www.104abc.com
www.113abc.com
www.124abc.com
www.132abc.com
www.134abc.com
www.141abc.com
www.142abc.com
www.143abc.com
www.144abc.com
www.146abc.com
www.149abc.com
www.151abc.com
www.153abc.com
www.154abc.com
www.155abc.com
www.156abc.com
www.157abc.com
www.160abc.com
www.161abc.com
www.162abc.com
www.164abc.com
www.165abc.com
www.166abc.com
www.167abc.com
www.172abc.com
www.174abc.com
www.185abc.com
www.190abc.com
www.191abc.com
www.193abc.com
www.194abc.com
www.197abc.com
www.201abc.com
www.203abc.com
www.204abc.com
www.205abc.com
www.206abc.com
www.207abc.com
www.208abc.com
www.209abc.com
www.212abc.com
www.214abc.com
www.216abc.com
www.217abc.com
www.218abc.com
www.228abc.com
www.229abc.com
www.227abc.com
www.230abc.com
www.231abc.com
www.232abc.com
www.236abc.com
www.239abc.com
www.240abc.com
www.244abc.com
www.249abc.com
www.252abc.com
www.253abc.com
www.255abc.com
www.259abc.com
www.262abc.com
www.1120k.com
www.1160k.com
www.1184k.com
www.1186k.com
www.1180k.com
www.1104k.com
www.1328k.com
www.1364k.com
www.1382k.com
www.1304k.com
www.1306k.com
www.1308k.com
www.1522k.com
www.1526k.com
www.1528k.com
www.1544k.com
www.1540k.com
www.1562k.com
www.1566k.com
www.1568k.com
www.1560k.com
www.1504k.com
www.1506k.com
www.1508k.com
www.1720k.com
www.1742k.com
www.1744k.com
www.1748k.com
www.1740k.com
www.1764k.com
www.1760k.com
www.1782k.com
www.1784k.com
www.1786k.com
www.1702k.com
www.1704k.com
www.1706k.com
www.1700k.com
www.1922k.com
www.1924k.com
www.1928k.com
www.1920k.com
www.1944k.com
www.1948k.com
www.1940k.com
www.1962k.com
www.1964k.com
www.1966k.com
www.1984k.com
www.1902k.com
www.1904k.com
www.3124k.com
www.3120k.com
www.3148k.com
www.3140k.com
www.3162k.com
www.3164k.com
www.3168k.com
www.3182k.com
www.3184k.com
www.265abc.com
www.267abc.com
www.380abc.com
www.322abc.com
www.391abc.com
www.277abc.com
www.342abc.com
www.335abc.com
www.376abc.com
www.341abc.com
www.370abc.com
www.290abc.com
www.338abc.com
www.379abc.com
www.301abc.com
www.284abc.com
www.395abc.com
www.272abc.com
www.339abc.com
www.385abc.com
www.297abc.com
www.384abc.com
www.273abc.com
www.329abc.com
www.346abc.com
www.337abc.com
www.336abc.com
www.330abc.com
www.309abc.com
www.352abc.com
www.306abc.com
www.287abc.com
www.308abc.com
www.280abc.com
www.325abc.com
www.394abc.com
www.302abc.com
www.292abc.com
www.276abc.com
www.347abc.com
www.344abc.com
www.293abc.com
www.374abc.com
www.282abc.com
www.318abc.com
www.320abc.com
www.364abc.com
www.349abc.com
www.386abc.com
www.283abc.com
www.328abc.com
www.279abc.com
www.389abc.com
www.381abc.com
www.354abc.com
www.390abc.com
www.382abc.com
www.294abc.com
www.334abc.com
www.355abc.com
www.264abc.com
www.2210h.com
www.2212h.com
www.2213h.com
www.2215h.com
www.2216h.com
www.2217h.com
www.2218h.com
www.2220h.com
www.2221h.com
www.2224h.com
www.2225h.com
www.2227h.com
www.2228h.com
www.2232h.com
www.2234h.com
www.2235h.com
www.2236h.com
www.2238h.com
www.2239h.com
www.2240h.com
www.2241h.com
www.2242h.com
www.2243h.com
www.2246h.com
www.2247h.com
www.2249h.com
www.2250h.com
www.2251h.com
www.2252h.com
www.2253h.com
www.2254h.com
www.2261h.com
www.2262h.com
www.2263h.com
www.2264h.com
www.2265h.com
www.2269h.com
www.2270h.com
www.2271h.com
www.2273h.com
www.2274h.com
www.2276h.com
www.2278h.com
www.2279h.com
www.2281h.com
www.2282h.com
www.2283h.com
www.2284h.com
www.2285h.com
www.2289h.com
www.2291h.com
www.2294h.com
www.2295h.com
www.2297h.com
www.6617h.com
www.6619h.com
www.6620h.com
www.6621h.com
www.6624h.com
www.6628h.com
www.6630h.com
www.6631h.com
www.6632h.com
www.6634h.com
www.6637h.com
www.6638h.com
www.6641h.com
www.6640h.com
www.6642h.com
www.6643h.com
www.6645h.com
www.6646h.com
www.6647h.com
www.6649h.com
www.6651h.com
www.6652h.com
www.6653h.com
www.6656h.com
www.6662h.com
www.6670h.com
www.6671h.com
www.6672h.com
www.6674h.com
www.6675h.com
www.6679h.com
www.6680h.com
www.6681h.com
www.6683h.com
www.6684h.com
www.6687h.com
www.6689h.com
www.6690h.com
www.6692h.com
www.6693h.com
www.6694h.com
www.6697h.com
www.6698h.com
www.8810h.com
www.8812h.com
www.8813h.com
www.8814h.com
www.8815h.com
www.8816h.com
www.8817h.com
www.8819h.com
www.8821h.com
www.8823h.com
www.8824h.com
www.8825h.com
www.8826h.com
www.8829h.com
www.8830h.com
www.8831h.com
www.8832h.com
www.8834h.com
www.8836h.com
www.8837h.com
www.8835h.com
www.8839h.com
www.8842h.com
www.8849h.com
www.8852h.com
www.8853h.com
www.8857h.com
www.8860h.com
www.8861h.com
www.8865h.com
www.8869h.com
www.8870h.com
www.8871h.com
www.8872h.com
www.8873h.com
www.8874h.com
www.8875h.com
www.8876h.com
www.8879h.com
www.8891h.com
www.8893h.com
www.4410h.com
www.4412h.com
www.4413h.com
www.4414h.com
www.4415h.com
www.4417h.com
www.4419h.com
www.4420h.com
www.4421h.com
www.4423h.com
www.4424h.com
www.4425h.com
www.4426h.com
www.4428h.com
www.4429h.com
www.4430h.com
www.4431h.com
www.4432h.com
www.4435h.com
www.4436h.com
www.533rr.com
www.1102t.com
www.1106t.com
www.1108t.com
www.1128t.com
www.1140t.com
www.1142t.com
www.1160t.com
www.1162t.com
www.1164t.com
www.1180t.com
www.1184t.com
www.1186t.com
www.1304t.com
www.1308t.com
www.1320t.com
www.1326t.com
www.1328t.com
www.1342t.com
www.1348t.com
www.1360t.com
www.1362t.com
www.1364t.com
www.1368t.com
www.1382t.com
www.1502t.com
www.1504t.com
www.1506t.com
www.1508t.com
www.1520t.com
www.1522t.com
www.1528t.com
www.1540t.com
www.1542t.com
www.1544t.com
www.1546t.com
www.1548t.com
www.1562t.com
www.1564t.com
www.1566t.com
www.1568t.com
www.1580t.com
www.1582t.com
www.1584t.com
www.1586t.com
www.1700t.com
www.1706t.com
www.1724t.com
www.1726t.com
www.1728t.com
www.1740t.com
www.1742t.com
www.1746t.com
www.1748t.com
www.1760t.com
www.1768t.com
www.1782t.com
www.1784t.com
www.1786t.com
www.1900t.com
www.1902t.com
www.1904t.com
www.1908t.com
www.1922t.com
www.1924t.com
www.1926t.com
www.1942t.com
www.1948t.com
www.1960t.com
www.1962t.com
www.1964t.com
www.1982t.com
www.1984t.com
www.1986t.com
www.5102t.com
www.5104t.com
www.5106t.com
www.5108t.com
www.5120t.com
www.100hgvip.com
www.101hgvip.com
www.102hgvip.com
www.103hgvip.com
www.105hgvip.com
www.106hgvip.com
www.107hgvip.com
www.108hgvip.com
www.110hgvip.com
www.112hgvip.com
www.113hgvip.com
www.114hgvip.com
www.115hgvip.com
www.116hgvip.com
www.117hgvip.com
www.118hgvip.com
www.119hgvip.com
www.120hgvip.com
www.121hgvip.com
www.122hgvip.com
www.123hgvip.com
www.124hgvip.com
www.126hgvip.com
www.127hgvip.com
www.128hgvip.com
www.129hgvip.com
www.130hgvip.com
www.131hgvip.com
www.132hgvip.com
www.133hgvip.com
www.134hgvip.com
www.135hgvip.com
www.136hgvip.com
www.137hgvip.com
www.138hgvip.com
www.139hgvip.com
www.140hgvip.com
www.141hgvip.com
www.142hgvip.com
www.143hgvip.com
www.144hgvip.com
www.145hgvip.com
www.146hgvip.com
www.147hgvip.com
www.148hgvip.com
www.150hgvip.com
www.151hgvip.com
www.153hgvip.com
www.154hgvip.com
www.155hgvip.com
www.156hgvip.com
www.157hgvip.com
www.158hgvip.com
www.159hgvip.com
www.160hgvip.com
www.161hgvip.com
www.162hgvip.com
www.163hgvip.com
www.164hgvip.com
www.165hgvip.com
www.166hgvip.com
www.167hgvip.com
www.168hgvip.com
www.169hgvip.com
www.170hgvip.com
www.171hgvip.com
www.172hgvip.com
www.173hgvip.com
www.174hgvip.com
www.175hgvip.com
www.176hgvip.com
www.177hgvip.com
www.178hgvip.com
www.179hgvip.com
www.180hgvip.com
www.181hgvip.com
www.182hgvip.com
www.183hgvip.com
www.184hgvip.com
www.185hgvip.com
www.186hgvip.com
www.187hgvip.com
www.188hgvip.com
www.189hgvip.com
www.190hgvip.com
www.191hgvip.com
www.192hgvip.com
www.193hgvip.com
www.194hgvip.com
www.195hgvip.com
www.196hgvip.com
www.197hgvip.com
www.198hgvip.com
www.199hgvip.com
www.5124t.com
www.5126t.com
www.5128t.com
www.5142t.com
www.5160t.com
www.5162t.com
www.5164t.com
www.5166t.com
www.5168t.com
www.5182t.com
www.5184t.com
www.5186t.com
www.5300t.com
www.5302t.com
www.5304t.com
www.5306t.com
www.5308t.com
www.5320t.com
www.5324t.com
www.5328t.com
www.5340t.com
www.5342t.com
www.5344t.com
www.5346t.com
www.5360t.com
www.5362t.com
www.5366t.com
www.5368t.com
www.5380t.com
www.5384t.com
www.5386t.com
www.5502t.com
www.5504t.com
www.5508t.com
www.5520t.com
www.5526t.com
www.5540t.com
www.5562t.com
www.5582t.com
www.5584t.com
www.5586t.com
www.5722t.com
www.5726t.com
www.5728t.com
www.1131v.com
www.1137v.com
www.1139v.com
www.1153v.com
www.1157v.com
www.1171v.com
www.1175v.com
www.1179v.com
www.1193v.com
www.1195v.com
www.1197v.com
www.1317v.com
www.1319v.com
www.1335v.com
www.1337v.com
www.1351v.com
www.1353v.com
www.1355v.com
www.1357v.com
www.1371v.com
www.1373v.com
www.1391v.com
www.1395v.com
www.1397v.com
www.1513v.com
www.1531v.com
www.1533v.com
www.1535v.com
www.1537v.com
www.1539v.com
www.1551v.com
www.1553v.com
www.1557v.com
www.1571v.com
www.1579v.com
www.1713v.com
www.1735v.com
www.1737v.com
www.1739v.com
www.1753v.com
www.1759v.com
www.1773v.com
www.1913v.com
www.1917v.com
www.1931v.com
www.1933v.com
www.1935v.com
www.1939v.com
www.1955v.com
www.1971v.com
www.1973v.com
www.1991v.com
www.3119v.com
www.3137v.com
www.3139v.com
www.3153v.com
www.3155v.com
www.3157v.com
www.3159v.com
www.3171v.com
www.3173v.com
www.3177v.com
www.3179v.com
www.3191v.com
www.3195v.com
www.3197v.com
www.2024v.com
www.2040v.com
www.2042v.com
www.2044v.com
www.2060v.com
www.2062v.com
www.2064v.com
www.2068v.com
www.2082v.com
www.2084v.com
www.2086v.com
www.2202v.com
www.2204v.com
www.2206v.com
www.2208v.com
www.2220v.com
www.2224v.com
www.2226v.com
www.2240v.com
www.2242v.com
www.2246v.com
www.2262v.com
www.2404v.com
www.2420v.com
www.2424v.com
www.2426v.com
www.2440v.com
www.2442v.com
www.2460v.com
www.2462v.com
www.2464v.com
www.2480v.com
www.2484v.com
www.2486v.com
www.2488v.com
www.2600v.com
www.2602v.com
www.2604v.com
www.2608v.com
www.2620v.com
www.2624v.com
www.2642v.com
www.2644v.com
www.2660v.com
www.2662v.com
www.2664v.com
www.2668v.com
www.2680v.com
www.2684v.com
www.2686v.com
www.2802v.com
www.2804v.com
www.2806v.com
www.2824v.com
www.2826v.com
www.2840v.com
www.2842v.com
www.2860v.com
www.2864v.com
www.2866v.com
www.2868v.com
www.2880v.com
www.2884v.com
www.2886v.com
www.4002v.com
www.4004v.com
www.4006v.com
www.4020v.com
www.4022v.com
www.4024v.com
www.4026v.com
www.4028v.com
www.4044v.com
www.4062v.com
www.4064v.com
www.4068v.com
www.4082v.com
www.4084v.com
www.4200v.com
www.1102d.com
www.1102e.com
www.1102n.com
www.1102s.com
www.1102v.com
www.1104a.com
www.1104d.com
www.1104f.com
www.1104g.com
www.1104j.com
www.1104q.com
www.1104u.com
www.1104w.com
www.1104x.com
www.1104y.com
www.1106d.com
www.1106f.com
www.1106h.com
www.1106s.com
www.1106u.com
www.1106x.com
www.1106y.com
www.1108e.com
www.1108h.com
www.1108j.com
www.1108m.com
www.1108s.com
www.1108u.com
www.1108x.com
www.1108y.com
www.1120a.com
www.1120c.com
www.1120e.com
www.1120g.com
www.1120j.com
www.1120m.com
www.1120n.com
www.1120q.com
www.1120x.com
www.1120y.com
www.1124e.com
www.1124f.com
www.1124g.com
www.1124j.com
www.1124m.com
www.1124q.com
www.1124u.com
www.1124v.com
www.1124w.com
www.1124x.com
www.1124y.com
www.1126g.com
www.1126m.com
www.1126n.com
www.1126q.com
www.1126s.com
www.1126v.com
www.1126x.com
www.1128b.com
www.1128c.com
www.1128d.com
www.1128f.com
www.1128g.com
www.9948b.com
www.9948c.com
www.9948d.com
www.9948e.com
www.9948f.com
www.9948k.com
www.9948m.com
www.9948n.com
www.9948q.com
www.9948u.com
www.9948w.com
www.9948x.com
www.9960f.com
www.9960g.com
www.9960s.com
www.9960u.com
www.9960w.com
www.9960x.com
www.9962m.com
www.9962q.com
www.9962w.com
www.9980e.com
www.9980g.com
www.9980m.com
www.9980u.com
www.9980w.com
www.9980x.com
www.9980y.com
www.9982f.com
www.9982g.com
www.9982h.com
www.9982k.com
www.9982u.com
www.9982x.com
www.9982y.com
www.9984a.com
www.9984c.com
www.9984d.com
www.9984e.com
www.9984f.com
www.9984g.com
www.9984h.com
www.9984j.com
www.9984n.com
www.9984u.com
www.9984x.com
www.9984y.com
www.9986j.com
www.9986m.com
www.9986n.com
www.9986s.com
www.9986u.com
www.9986v.com
www.9986w.com
www.9986x.com
www.9986y.com
www.9926w.com
www.9926x.com
www.9926y.com
www.9940e.com
www.9940g.com
www.9940h.com
www.9940j.com
www.9940k.com
www.9940n.com
www.9940q.com
www.9940s.com
www.9940u.com
www.9940v.com
www.9940w.com
www.9940x.com
www.9940y.com
www.9942a.com
www.9942b.com
www.9942c.com
www.9942d.com
www.9942e.com
www.9942g.com
www.9942h.com
www.9942j.com
www.9942k.com
www.9942m.com
www.9942n.com
www.9942q.com
www.9942u.com
www.9942w.com
www.9944k.com
www.9946a.com
www.9946b.com
www.9946c.com
www.9946d.com
www.9946e.com
www.9946f.com
www.9946g.com
www.9946h.com
www.9946j.com
www.9946k.com
www.9946m.com
www.9946n.com
www.9946q.com
www.9946s.com
www.9946u.com
www.9946v.com
www.9946w.com
www.9946x.com
www.9946y.com
www.9948a.com
www.9904w.com
www.9904x.com
www.9906a.com
www.9906b.com
www.9906d.com
www.9906e.com
www.9906f.com
www.9906h.com
www.9906j.com
www.9906m.com
www.9906n.com
www.9906s.com
www.9906u.com
www.9906v.com
www.9906w.com
www.9906x.com
www.9906y.com
www.9920a.com
www.9920b.com
www.9920d.com
www.9920e.com
www.9920g.com
www.9920j.com
www.9920m.com
www.9920n.com
www.9920q.com
www.9920s.com
www.9920u.com
www.9920v.com
www.9920w.com
www.9920x.com
www.9920y.com
www.9924a.com
www.9924f.com
www.9924g.com
www.9924h.com
www.9924j.com
www.9924q.com
www.9924s.com
www.9784y.com
www.9786j.com
www.9784u.com
www.9788s.com
www.9902y.com
www.9902q.com
www.9784k.com
www.9786u.com
www.9786s.com
www.9902m.com
www.9786m.com
www.9904d.com
www.9784d.com
www.9786k.com
www.9786y.com
www.9902e.com
www.9902n.com
www.9904h.com
www.9784e.com
www.9784a.com
www.9902v.com
www.9784x.com
www.9902h.com
www.9904g.com
www.9784f.com
www.9904m.com
www.9902j.com
www.9786w.com
www.9902d.com
www.9784v.com
www.9904a.com
www.9904j.com
www.9902u.com
www.9784s.com
www.9784c.com
www.9786q.com
www.9784n.com
www.9784g.com
www.9902a.com
www.9786t.com
www.9902k.com
www.9904k.com
www.9786v.com
www.9784m.com
www.9904c.com
www.9904e.com
www.9784q.com
www.9784t.com
www.9784b.com
www.9786n.com
www.9902f.com
www.9902g.com
www.9904b.com
www.9924u.com
www.9924v.com
www.9924w.com
www.9924x.com
www.9924y.com
www.9926n.com
www.9926q.com
www.9926s.com
www.9926v.com
www.1324x.com
www.1322t.com
www.1324m.com
www.1304y.com
www.1308n.com
www.1324n.com
www.1308w.com
www.1324j.com
www.1320u.com
www.1324w.com
www.1320f.com
www.1324e.com
www.1324q.com
www.1322g.com
www.1324y.com
www.1320a.com
www.1304v.com
www.1304s.com
www.1324c.com
www.1304d.com
www.1320d.com
www.1300j.com
www.1320v.com
www.1304g.com
www.1320b.com
www.1304b.com
www.1304x.com
www.1324g.com
www.1324u.com
www.1304c.com
www.1322x.com
www.1304m.com
www.1320y.com
www.1304j.com
www.1320w.com
www.1300u.com
www.1320e.com
www.1308y.com
www.1304h.com
www.243hh.com
www.427hh.com
www.501hh.com
www.504hh.com
www.507hh.com
www.603hh.com
www.604hh.com
www.607hh.com
www.608hh.com
www.645hh.com
www.649hh.com
www.681hh.com
www.694hh.com
www.700hh.com
www.802hh.com
www.803hh.com
www.804hh.com
www.807hh.com
www.814hh.com
www.815hh.com
www.824hh.com
www.834hh.com
www.841hh.com
www.842hh.com
www.843hh.com
www.846hh.com
www.847hh.com
www.849hh.com
www.859hh.com
www.861hh.com
www.874hh.com
www.894hh.com
www.896hh.com
www.902hh.com
www.903hh.com
www.904hh.com
www.914hh.com
www.924hh.com
www.930hh.com
www.940hh.com
www.946hh.com
www.947hh.com
www.948hh.com
www.958hh.com
www.2220x.com
www.2242x.com
www.2468x.com
www.2448x.com
www.52xiai.com
www.yuebav.com
www.yeub.io
www.yueb.io
www.yuebiav.com
www.yueb123.com
www.6656g.com
www.6686q.com
www.6685x.com
www.6689i.com
www.6656z.com
www.6658e.com
www.6689d.com
www.6658u.com
www.6689n.com
www.6689z.com
www.6658f.com
www.6685d.com
www.6659s.com
www.6658g.com
www.6659y.com
www.6685j.com
www.6689j.com
www.6685c.com
www.6659f.com
www.6689r.com
www.6658z.com
www.6658n.com
www.6658d.com
www.6658y.com
www.6686g.com
www.6686j.com
www.6656k.com
www.6686i.com
www.6686p.com
www.6658j.com
www.6656p.com
www.6685t.com
www.6689e.com
www.6689b.com
www.6685w.com
www.6685e.com
www.6656j.com
www.6686c.com
www.6658r.com
www.6686r.com
www.6685y.com
www.6685z.com
www.6689g.com
www.6685n.com
www.6656y.com
www.6686m.com
www.6689p.com
www.6695i.com
www.6696b.com
www.6696d.com
www.6696e.com
www.6696g.com
www.6696j.com
www.6696m.com
www.6696n.com
www.6696r.com
www.6696z.com
www.6698d.com
www.6698g.com
www.6698i.com
www.6698q.com
www.6698s.com
www.6698u.com
www.6698z.com
www.6855a.com
www.6855c.com
www.6855d.com
www.6855e.com
www.6855f.com
www.6855g.com
www.6855i.com
www.6855n.com
www.6855q.com
www.6855s.com
www.6855u.com
www.6855w.com
www.6855x.com
www.6855y.com
www.6856c.com
www.6856f.com
www.6856g.com
www.6856j.com
www.6856k.com
www.6856m.com
www.6856n.com
www.6856q.com
www.6856r.com
www.6856s.com
www.6856t.com
www.6856v.com
www.6856z.com
www.9868d.com
www.9868e.com
www.9868f.com
www.9868i.com
www.9868j.com
www.9868m.com
www.9868p.com
www.9868u.com
www.9868v.com
www.9868w.com
www.9868x.com
www.9868z.com
www.9869a.com
www.9869b.com
www.9869d.com
www.9869e.com
www.9869f.com
www.9869g.com
www.9869i.com
www.9869k.com
www.9869m.com
www.9869n.com
www.9869p.com
www.9869q.com
www.9869r.com
www.9869t.com
www.9869u.com
www.9869v.com
www.9869w.com
www.9869y.com
www.9885c.com
www.9885g.com
www.9885h.com
www.9885i.com
www.9885m.com
www.9885p.com
www.9885z.com
www.9886f.com
www.9886g.com
www.9886h.com
www.9886i.com
www.9886j.com
www.9886m.com
www.9886n.com
www.9886r.com
www.9886w.com
www.404.94cdn.com
www.29cdn.com
www.30cdn.com
www.34cdn.com
www.38cdn.com
www.40cdn.com
www.41cdn.com
www.44cdn.com
www.46cdn.com
www.47cdn.com
www.48cdn.com
www.49cdn.com
www.63cdn.com
www.64cdn.com
www.70cdn.com
www.71cdn.com
www.73cdn.com
www.74cdn.com
www.76cdn.com
www.82cdn.com
www.83cdn.com
www.93cdn.com
www.94cdn.com
www.tpdns.012ip.com
www.42hgvip.com
www.43hgvip.com
www.44hgvip.com
www.46hgvip.com
www.48hgvip.com
www.57hgvip.com
www.61hgvip.com
www.62hgvip.com
www.63hgvip.com
www.67hgvip.com
www.68hgvip.com
www.69hgvip.com
www.70hgvip.com
www.71hgvip.com
www.73hgvip.com
www.74hgvip.com
www.75hgvip.com
www.76hgvip.com
www.78hgvip.com
www.79hgvip.com
www.81hgvip.com
www.82hgvip.com
www.83hgvip.com
www.84hgvip.com
www.85hgvip.com
www.86hgvip.com
www.87hgvip.com
www.89hgvip.com
www.90hgvip.com
www.91hgvip.com
www.92hgvip.com
www.93hgvip.com
www.94hgvip.com
www.95hgvip.com
www.96hgvip.com
www.97hgvip.com
www.98hgvip.com
www.m.42hgvip.com
www.m.43hgvip.com
www.m.44hgvip.com
www.m.46hgvip.com
www.m.48hgvip.com
www.m.57hgvip.com
www.m.61hgvip.com
www.m.62hgvip.com
www.m.63hgvip.com
www.m.67hgvip.com
www.m.68hgvip.com
www.m.69hgvip.com
www.m.70hgvip.com
www.m.71hgvip.com
www.m.73hgvip.com
www.m.74hgvip.com
www.m.75hgvip.com
www.m.76hgvip.com
www.m.78hgvip.com
www.m.79hgvip.com
www.m.81hgvip.com
www.m.82hgvip.com
www.m.83hgvip.com
www.m.84hgvip.com
www.m.85hgvip.com
www.m.86hgvip.com
www.m.87hgvip.com
www.m.89hgvip.com
www.m.90hgvip.com
www.m.91hgvip.com
www.m.92hgvip.com
www.m.93hgvip.com
www.m.94hgvip.com
www.m.95hgvip.com
www.m.96hgvip.com
www.m.97hgvip.com
www.m.98hgvip.com
www.6885m.com
www.6889c.com
www.6866i.com
www.6885n.com
www.6886q.com
www.6889q.com
www.9866d.com
www.6885z.com
www.6889n.com
www.9866r.com
www.6885i.com
www.6886t.com
www.6885j.com
www.6866z.com
www.9866e.com
www.6885q.com
www.9866n.com
www.6889e.com
www.6885d.com
www.6889i.com
www.9866g.com
www.6889u.com
www.9866j.com
www.6885y.com
www.9866t.com
www.9866u.com
www.6866x.com
www.9866i.com
www.6866u.com
www.6885s.com
www.6889s.com
www.6885c.com
www.6885r.com
www.6889f.com
www.6886p.com
www.9866q.com
www.6885e.com
www.6866j.com
www.6885t.com
www.9866f.com
www.6886r.com
www.6885x.com
www.6866r.com
www.9866x.com
www.6885f.com
www.9866p.com
www.5501aa.com
www.5526aa.com
www.5578aa.com
www.5537aa.com
www.5527aa.com
www.5529aa.com
www.5582aa.com
www.5597aa.com
www.5531aa.com
www.5510aa.com
www.5508aa.com
www.5503aa.com
www.5512aa.com
www.5585aa.com
www.5539aa.com
www.5573aa.com
www.5572aa.com
www.5560aa.com
www.5583aa.com
www.5558aa.com
www.5594aa.com
www.5576aa.com
www.5549aa.com
www.5569aa.com
www.5584aa.com
www.5561aa.com
www.5563aa.com
www.5532aa.com
www.5513aa.com
www.5506aa.com
www.5502aa.com
www.5525aa.com
www.5514aa.com
www.5520aa.com
www.5516aa.com
www.5552aa.com
www.5598aa.com
www.5530aa.com
www.5540aa.com
www.5596aa.com
www.5592aa.com
www.5579aa.com
www.5586aa.com
www.5581aa.com
www.5515aa.com
www.5536aa.com
www.5565aa.com
www.5590aa.com
www.5541aa.com
www.2292bb.com
www.2283bb.com
www.2258bb.com
www.2259bb.com
www.2264bb.com
www.2253bb.com
www.2273bb.com
www.2209bb.com
www.2290bb.com
www.2286bb.com
www.2241bb.com
www.2225bb.com
www.2210bb.com
www.2217bb.com
www.2289bb.com
www.2282bb.com
www.2223bb.com
www.2201bb.com
www.2271bb.com
www.2252bb.com
www.2220bb.com
www.2281bb.com
www.2298bb.com
www.2256bb.com
www.2294bb.com
www.2215bb.com
www.2265bb.com
www.2270bb.com
www.2228bb.com
www.2224bb.com
www.2278bb.com
www.2231bb.com
www.2293bb.com
www.2235bb.com
www.2261bb.com
www.2262bb.com
www.2216bb.com
www.2243bb.com
www.2219bb.com
www.2203bb.com
www.2202bb.com
www.2212bb.com
www.2240bb.com
www.2230bb.com
www.2295bb.com
www.2263bb.com
www.2234bb.com
www.2249bb.com
www.2246bb.com
www.2254bb.com
www.2247bb.com
www.2291bb.com
www.2279bb.com
www.2269bb.com
www.2239bb.com
www.2207bb.com
www.2248bb.com
www.2238bb.com
www.2280bb.com
www.2272bb.com
www.2274bb.com
www.3301cc.com
www.3362cc.com
www.3397cc.com
www.3376cc.com
www.3363cc.com
www.3351cc.com
www.3372cc.com
www.3323cc.com
www.3352cc.com
www.3309cc.com
www.3347cc.com
www.3387cc.com
www.3312cc.com
www.3354cc.com
www.3303cc.com
www.3317cc.com
www.3371cc.com
www.3392cc.com
www.3310cc.com
www.3364cc.com
www.3389cc.com
www.3324cc.com
www.3332cc.com
www.3343cc.com
www.3391cc.com
www.3383cc.com
www.3325cc.com
www.3384cc.com
www.3334cc.com
www.3386cc.com
www.3307cc.com
www.3370cc.com
www.3342cc.com
www.3396cc.com
www.3394cc.com
www.3315cc.com
www.3367cc.com
www.3302cc.com
www.3329cc.com
www.3398cc.com
www.3361cc.com
www.3395cc.com
www.3353cc.com
www.3381cc.com
www.3320cc.com
www.3390cc.com
www.3382cc.com
www.3336cc.com
www.3368cc.com
www.3385cc.com
www.3337cc.com
www.3321cc.com
www.3319cc.com
www.3393cc.com
www.3327cc.com
www.3350cc.com
www.3340cc.com
www.4401dd.com
www.4402dd.com
www.4403dd.com
www.4404dd.com
www.4406dd.com
www.4410dd.com
www.4411dd.com
www.4412dd.com
www.4414dd.com
www.4415dd.com
www.4416dd.com
www.4417dd.com
www.4419dd.com
www.4422dd.com
www.4423dd.com
www.4425dd.com
www.4426dd.com
www.4430dd.com
www.4431dd.com
www.4432dd.com
www.4436dd.com
www.4438dd.com
www.4441dd.com
www.4442dd.com
www.4446dd.com
www.4450dd.com
www.4451dd.com
www.4453dd.com
www.4454dd.com
www.4457dd.com
www.4458dd.com
www.4460dd.com
www.4463dd.com
www.4464dd.com
www.4465dd.com
www.4467dd.com
www.4470dd.com
www.4471dd.com
www.4472dd.com
www.4473dd.com
www.4475dd.com
www.4476dd.com
www.4478dd.com
www.4481dd.com
www.4482dd.com
www.4484dd.com
www.4487dd.com
www.4490dd.com
www.4494dd.com
www.4496dd.com
www.4497dd.com
www.4498dd.com
www.8802hh.com
www.8818hh.com
www.8815hh.com
www.8817hh.com
www.8806hh.com
www.8801hh.com
www.8813hh.com
www.8803hh.com
www.8810hh.com
www.8816hh.com
www.8823hh.com
www.8825hh.com
www.8830hh.com
www.8837hh.com
www.8841hh.com
www.8834hh.com
www.8835hh.com
www.8839hh.com
www.8847hh.com
www.8850hh.com
www.8856hh.com
www.8860hh.com
www.8859hh.com
www.8861hh.com
www.8869hh.com
www.8870hh.com
www.8871hh.com
www.8873hh.com
www.8874hh.com
www.8876hh.com
www.8875hh.com
www.8879hh.com
www.8878hh.com
www.8882hh.com
www.8887hh.com
www.8890hh.com
www.8891hh.com
www.8893hh.com
www.8895hh.com
www.8896hh.com
www.8823jj.com
www.8818jj.com
www.8807jj.com
www.8803jj.com
www.8824jj.com
www.8821jj.com
www.8816jj.com
www.8813jj.com
www.8809jj.com
www.8812jj.com
www.8825jj.com
www.8830jj.com
www.8826jj.com
www.8829jj.com
www.8834jj.com
www.8835jj.com
www.8832jj.com
www.8837jj.com
www.8842jj.com
www.8840jj.com
www.8843jj.com
www.8849jj.com
www.8853jj.com
www.8855jj.com
www.8859jj.com
www.8862jj.com
www.8861jj.com
www.8864jj.com
www.8870jj.com
www.8872jj.com
www.8874jj.com
www.8875jj.com
www.8876jj.com
www.8879jj.com
www.8882jj.com
www.8880jj.com
www.8885jj.com
www.8881jj.com
www.8884jj.com
www.8886jj.com
www.8893jj.com
www.8895jj.com
www.8892jj.com
www.8897jj.com
www.8898jj.com
www.6615yy.com
www.6620yy.com
www.6618yy.com
www.6612yy.com
www.6621yy.com
www.6616yy.com
www.6619yy.com
www.6627yy.com
www.6617yy.com
www.6602yy.com
www.6628yy.com
www.6607yy.com
www.6634yy.com
www.6638yy.com
www.6637yy.com
www.6640yy.com
www.6642yy.com
www.6643yy.com
www.6652yy.com
www.6650yy.com
www.6651yy.com
www.6657yy.com
www.6660yy.com
www.6658yy.com
www.6664yy.com
www.6663yy.com
www.6667yy.com
www.6670yy.com
www.6672yy.com
www.6674yy.com
www.6675yy.com
www.6678yy.com
www.6681yy.com
www.6682yy.com
www.6689yy.com
www.6691yy.com
www.6692yy.com
www.6694yy.com
www.6698yy.com
www.6696yy.com
www.6697yy.com
www.200hgvip.com
www.201hgvip.com
www.202hgvip.com
www.203hgvip.com
www.204hgvip.com
www.205hgvip.com
www.206hgvip.com
www.207hgvip.com
www.208hgvip.com
www.209hgvip.com
www.210hgvip.com
www.212hgvip.com
www.213hgvip.com
www.214hgvip.com
www.215hgvip.com
www.216hgvip.com
www.217hgvip.com
www.218hgvip.com
www.219hgvip.com
www.220hgvip.com
www.221hgvip.com
www.223hgvip.com
www.224hgvip.com
www.225hgvip.com
www.226hgvip.com
www.227hgvip.com
www.228hgvip.com
www.229hgvip.com
www.230hgvip.com
www.231hgvip.com
www.232hgvip.com
www.233hgvip.com
www.234hgvip.com
www.235hgvip.com
www.236hgvip.com
www.237hgvip.com
www.238hgvip.com
www.239hgvip.com
www.240hgvip.com
www.241hgvip.com
www.242hgvip.com
www.243hgvip.com
www.244hgvip.com
www.245hgvip.com
www.246hgvip.com
www.247hgvip.com
www.248hgvip.com
www.249hgvip.com
www.250hgvip.com
www.251hgvip.com
www.252hgvip.com
www.253hgvip.com
www.254hgvip.com
www.255hgvip.com
www.256hgvip.com
www.257hgvip.com
www.258hgvip.com
www.259hgvip.com
www.260hgvip.com
www.261hgvip.com
www.262hgvip.com
www.263hgvip.com
www.264hgvip.com
www.265hgvip.com
www.266hgvip.com
www.267hgvip.com
www.268hgvip.com
www.269hgvip.com
www.270hgvip.com
www.271hgvip.com
www.272hgvip.com
www.273hgvip.com
www.274hgvip.com
www.275hgvip.com
www.276hgvip.com
www.277hgvip.com
www.278hgvip.com
www.279hgvip.com
www.280hgvip.com
www.281hgvip.com
www.282hgvip.com
www.283hgvip.com
www.284hgvip.com
www.285hgvip.com
www.286hgvip.com
www.287hgvip.com
www.288hgvip.com
www.289hgvip.com
www.290hgvip.com
www.291hgvip.com
www.292hgvip.com
www.293hgvip.com
www.294hgvip.com
www.295hgvip.com
www.296hgvip.com
www.297hgvip.com
www.298hgvip.com
www.299hgvip.com
www.2tycvip.com
www.3tycvip.com
www.4tycvip.com
www.5tycvip.com
www.6tycvip.com
www.7tycvip.com
www.8tycvip.com
www.9tycvip.com
www.10tycvip.com
www.12tycvip.com
www.13tycvip.com
www.14tycvip.com
www.15tycvip.com
www.16tycvip.com
www.18tycvip.com
www.19tycvip.com
www.20tycvip.com
www.21tycvip.com
www.22tycvip.com
www.23tycvip.com
www.24tycvip.com
www.25tycvip.com
www.26tycvip.com
www.27tycvip.com
www.28tycvip.com
www.29tycvip.com
www.30tycvip.com
www.31tycvip.com
www.32tycvip.com
www.33tycvip.com
www.37tycvip.com
www.38tycvip.com
www.39tycvip.com
www.40tycvip.com
www.41tycvip.com
www.42tycvip.com
www.43tycvip.com
www.44tycvip.com
www.45tycvip.com
www.46tycvip.com
www.47tycvip.com
www.48tycvip.com
www.49tycvip.com
www.50tycvip.com
www.51tycvip.com
www.52tycvip.com
www.53tycvip.com
www.54tycvip.com
www.55tycvip.com
www.56tycvip.com
www.57tycvip.com
www.59tycvip.com
www.60tycvip.com
www.61tycvip.com
www.62tycvip.com
www.63tycvip.com
www.64tycvip.com
www.65tycvip.com
www.67tycvip.com
www.69tycvip.com
www.70tycvip.com
www.71tycvip.com
www.72tycvip.com
www.73tycvip.com
www.74tycvip.com
www.75tycvip.com
www.76tycvip.com
www.78tycvip.com
www.79tycvip.com
www.80tycvip.com
www.81tycvip.com
www.82tycvip.com
www.83tycvip.com
www.84tycvip.com
www.85tycvip.com
www.86tycvip.com
www.87tycvip.com
www.89tycvip.com
www.90tycvip.com
www.92tycvip.com
www.93tycvip.com
www.94tycvip.com
www.95tycvip.com
www.96tycvip.com
www.97tycvip.com
www.2yyhh.com
www.3yyhh.com
www.4yyhh.com
www.5yyhh.com
www.6yyhh.com
www.7yyhh.com
www.8yyhh.com
www.9yyhh.com
www.10yyhh.com
www.12yyhh.com
www.13yyhh.com
www.14yyhh.com
www.15yyhh.com
www.16yyhh.com
www.17yyhh.com
www.18yyhh.com
www.19yyhh.com
www.20yyhh.com
www.21yyhh.com
www.23yyhh.com
www.24yyhh.com
www.25yyhh.com
www.26yyhh.com
www.27yyhh.com
www.28yyhh.com
www.29yyhh.com
www.30yyhh.com
www.31yyhh.com
www.32yyhh.com
www.34yyhh.com
www.35yyhh.com
www.36yyhh.com
www.37yyhh.com
www.38yyhh.com
www.39yyhh.com
www.40yyhh.com
www.41yyhh.com
www.42yyhh.com
www.43yyhh.com
www.45yyhh.com
www.46yyhh.com
www.47yyhh.com
www.48yyhh.com
www.49yyhh.com
www.50yyhh.com
www.52yyhh.com
www.53yyhh.com
www.54yyhh.com
www.56yyhh.com
www.57yyhh.com
www.58yyhh.com
www.59yyhh.com
www.60yyhh.com
www.61yyhh.com
www.62yyhh.com
www.63yyhh.com
www.64yyhh.com
www.65yyhh.com
www.67yyhh.com
www.68yyhh.com
www.69yyhh.com
www.70yyhh.com
www.71yyhh.com
www.72yyhh.com
www.73yyhh.com
www.74yyhh.com
www.75yyhh.com
www.76yyhh.com
www.77yyhh.com
www.78yyhh.com
www.79yyhh.com
www.80yyhh.com
www.81yyhh.com
www.82yyhh.com
www.83yyhh.com
www.84yyhh.com
www.85yyhh.com
www.86yyhh.com
www.87yyhh.com
www.89yyhh.com
www.90yyhh.com
www.91yyhh.com
www.92yyhh.com
www.93yyhh.com
www.94yyhh.com
www.95yyhh.com
www.96yyhh.com
www.98yyhh.com
www.0101dd.com
www.0101jj.com
www.0101qq.com
www.0202dd.com
www.0202ee.com
www.0202hh.com
www.0202kk.com
www.0202qq.com
www.0202ss.com
www.0202ww.com
www.0303dd.com
www.0303hh.com
www.0303kk.com
www.0303ww.com
www.0404dd.com
www.0404hh.com
www.0404qq.com
www.0404ss.com
www.0404ww.com
www.0505hh.com
www.0505jj.com
www.0505kk.com
www.0505qq.com
www.0505ss.com
www.0505ww.com
www.0606hh.com
www.0606jj.com
www.0606kk.com
www.0606qq.com
www.0606ss.com
www.0808dd.com
www.0808ee.com
www.0808hh.com
www.0808jj.com
www.0909dd.com
www.0909hh.com
www.0909jj.com
www.0909ss.com
www.0909ww.com
www.1010ee.com
www.1010qq.com
www.1010ww.com
www.1212jj.com
www.1313ee.com
www.1313ww.com
www.1515ee.com
www.1515jj.com
www.1616dd.com
www.1616hh.com
www.1616jj.com
www.1616ww.com
www.1717ss.com
www.1919hh.com
www.1919jj.com
www.1919ss.com
www.1919ww.com
www.2020ss.com
www.2020ww.com
www.2121hh.com
www.2121jj.com
www.2424hh.com
www.2424jj.com
www.2424ww.com
www.2525jj.com
www.2525qq.com
www.2525ww.com
www.2626hh.com
www.2626jj.com
www.2626kk.com
www.2626qq.com
www.2626ww.com
www.2727dd.com
www.2727ee.com
www.2727kk.com
www.2727ss.com
www.2929ee.com
www.2929hh.com
www.2929qq.com
www.2929ss.com
www.2929ww.com
www.3030hh.com
www.3030jj.com
www.3030qq.com
www.3030ww.com
www.3131hh.com
www.3131jj.com
www.3131kk.com
www.3131ww.com
www.3232ee.com
www.3232hh.com
www.3232ww.com
www.3636dd.com
www.3636hh.com
www.3636qq.com
www.3737dd.com
www.3737ee.com
www.3737hh.com
www.3737jj.com
www.3737qq.com
www.3737ss.com
www.3939ee.com
www.3939hh.com
www.3939jj.com
www.4141dd.com
www.4141hh.com
www.4141kk.com
www.4545ww.com
www.4646hh.com
www.4646jj.com
www.4646ww.com
www.4848ee.com
www.4848hh.com
www.4848jj.com
www.4848ss.com
www.4848ww.com
www.5050dd.com
www.5050ee.com
www.5050jj.com
www.5050qq.com
www.5050ww.com
www.5151ww.com
www.5353ee.com
www.5454ww.com
www.5757jj.com
www.5757ss.com
www.5757ww.com
www.5858ee.com
www.5959hh.com
www.5959jj.com
www.5959qq.com
www.5959ww.com
www.6161dd.com
www.6161ee.com
www.6161jj.com
www.6161qq.com
www.6161ww.com
www.6262dd.com
www.6262kk.com
www.6464dd.com
www.6464hh.com
www.6464jj.com
www.6464kk.com
www.6464qq.com
www.6464ss.com
www.6464ww.com
www.6565ee.com
www.6565jj.com
www.6767ee.com
www.6767hh.com
www.6868hh.com
www.6969kk.com
www.6969qq.com
www.6969ss.com
www.6969ww.com
www.7070dd.com
www.7070hh.com
www.7070jj.com
www.7070qq.com
www.7070ww.com
www.7171ee.com
www.7171hh.com
www.7171jj.com
www.7171qq.com
www.7171ww.com
www.7272kk.com
www.7373ee.com
www.7373jj.com
www.7373ww.com
www.7676jj.com
www.7676ss.com
www.7979ee.com
www.7979jj.com
www.7979kk.com
www.8181ee.com
www.8181jj.com
www.8181qq.com
www.8181ww.com
www.8383jj.com
www.8383qq.com
www.8383ww.com
www.8484hh.com
www.8484jj.com
www.8484qq.com
www.8686hh.com
www.8686jj.com
www.8686ww.com
www.8989ee.com
www.8989ss.com
www.8989ww.com
www.9292ee.com
www.9292hh.com
www.9292kk.com
www.9292ss.com
www.9393ee.com
www.9393jj.com
www.9393qq.com
www.9393ss.com
www.9393ww.com
www.9494dd.com
www.9494ee.com
www.9494jj.com
www.9494qq.com
www.9494ww.com
www.9595hh.com
www.9595ww.com
www.9696ss.com
www.9696ww.com
www.9797jj.com
www.9797kk.com
www.111yyhh.com
www.222yyhh.com
www.333yyhh.com
www.444yyhh.com
www.555yyhh.com
www.666yyhh.com
www.777yyhh.com
www.888yyhh.com
www.999yyhh.com
www.2264yy.com
www.2282yy.com
www.2284yy.com
www.2286yy.com
www.2424yy.com
www.2426yy.com
www.2444yy.com
www.2446yy.com
www.2448yy.com
www.2462yy.com
www.2464yy.com
www.2482yy.com
www.2484yy.com
www.2486yy.com
www.2488yy.com
www.2624yy.com
www.2622yy.com
www.2642yy.com
www.2644yy.com
www.2662yy.com
www.2664yy.com
www.2666yy.com
www.2668yy.com
www.2684yy.com
www.2686yy.com
www.2822yy.com
www.2824yy.com
www.2826yy.com
www.2842yy.com
www.2844yy.com
www.2848yy.com
www.2862yy.com
www.2864yy.com
www.2866yy.com
www.2868yy.com
www.2882yy.com
www.2884yy.com
www.2886yy.com
www.551an.com
www.551ba.com
www.551ce.com
www.551da.com
www.551de.com
www.551di.com
www.551en.co
www.551ji.com
www.551ke.com
www.551na.com
www.551ne.com
www.551pi.com
www.551qi.com
www.551re.com
www.551ri.com
www.551sa.com
www.551ta.com
www.551te.com
www.551ti.com
www.551xi.com
www.551za.com
www.551ze.com
www.551bi.com
www.551bu.com
www.551ci.com
www.551er.com
www.551fo.com
www.551ju.com
www.551ku.com
www.551mo.com
www.551nu.com
www.551nv.com
www.551po.com
www.551pu.com
www.551qu.com
www.551ru.com
www.551si.com
www.551su.com
www.551yo.com
www.551zi.com
www.551zu.com
www.552ca.com
www.552ce.com
www.552di.com
www.552en.com
www.552fa.com
www.552ji.com
www.552na.com
www.552ne.com
www.552pi.com
www.552qi.com
www.552sa.com
www.552ti.com
www.552xi.com
www.552za.com
www.552ze.com
www.552bi.com
www.552ci.com
www.552cu.com
www.552fo.com
www.552ju.com
www.552mi.com
www.552mo.com
www.552nu.com
www.552nv.com
www.552po.com
www.552ru.com
www.552si.com
www.552su.com
www.552yo.com
www.552zi.com
www.553an.com
www.553ba.com
www.553ca.com
www.553ce.com
www.553da.com
www.553de.com
www.553di.com
www.553en.com
www.553fa.com
www.553ge.com
www.553he.com
www.553ji.com
www.553ke.com
www.553na.com
www.553ne.com
www.553pi.com
www.553qi.com
www.553re.com
www.553ri.com
www.553sa.com
www.553ta.com
www.553te.com
www.553ti.com
www.553wa.com
www.553xi.com
www.553ya.com
www.553ye.com
www.553za.com
www.553ze.com
www.553bi.com
www.553bu.com
www.553ci.com
www.553cu.com
www.553du.com
www.553er.com
www.553fo.com
www.553fu.com
www.553gu.com
www.553hu.com
www.553ju.com
www.553ku.com
www.553mi.com
www.553mo.com
www.553nu.com
www.553nv.com
www.553po.com
www.553pu.com
www.553qu.com
www.553ru.com
www.553si.com
www.553su.com
www.553wo.com
www.553wu.com
www.553xu.com
www.553yo.com
www.553zi.com
www.553zu.com
www.556an.com
www.556ca.com
www.556ce.com
www.556di.com
www.556ji.com
www.556na.com
www.556ne.com
www.556pi.com
www.556qi.com
www.556sa.com
www.556ti.com
www.556xi.com
www.556za.com
www.556ze.com
www.556bo.com
www.556ci.com
www.556cu.com
www.556fo.com
www.556fu.com
www.556ju.com
www.556mi.com
www.556nu.com
www.556nv.com
www.556po.com
www.556ru.com
www.556si.com
www.556su.com
www.556yo.com
www.556yu.com
www.556zi.com
www.556zu.com
www.557ca.com
www.557ce.com
www.557di.com
www.557en.com
www.557ji.com
www.557na.com
www.557ne.com
www.557pi.com
www.557sa.com
www.557ti.com
www.557xi.com
www.557yi.com
www.557za.com
www.557ze.com
www.557bi.com
www.557ci.com
www.557cu.com
www.557er.com
www.557ju.com
www.557mi.com
www.557mo.com
www.557nu.com
www.557nv.com
www.557po.com
www.557ru.com
www.557si.com
www.557su.com
www.557yo.com
www.557zi.com
www.557zu.com
www.558di.com
www.558ji.com
www.558na.com
www.558ne.com
www.558pi.com
www.558qi.com
www.558xi.com
www.558za.com
www.558ze.com
www.558ci.com
www.558cu.com
www.558er.com
www.558fo.com
www.558ju.com
www.558mo.com
www.558nu.com
www.558po.com
www.558ru.com
www.558si.com
www.558su.com
www.558yo.com
www.558zi.com
www.558zu.com
www.559ca.com
www.559ce.com
www.559di.com
www.559en.com
www.559ji.com
www.559na.com
www.559ne.com
www.559pi.com
www.559qi.com
www.559ri.com
www.559sa.com
www.559ti.com
www.559xi.com
www.559za.com
www.559ze.com
www.559bi.com
www.559ci.com
www.559cu.com
www.559er.com
www.559fo.com
www.559ju.com
www.559mo.com
www.559nu.com
www.559nv.com
www.559po.com
www.559ru.com
www.559si.com
www.559su.com
www.559yo.com
www.559zi.com
www.559zu.com
www.881an.com
www.881ba.com
www.881ca.com
www.881ce.com
www.881da.com
www.881de.com
www.881di.com
www.881en.com
www.881ge.com
www.881he.com
www.881ji.com
www.881ke.com
www.881na.com
www.881ne.com
www.881pa.com
www.881pi.com
www.881qi.com
www.881re.com
www.881ri.com
www.881sa.com
www.881ta.com
www.881te.com
www.881ti.com
www.881wa.com
www.881xi.com
www.881ye.com
www.881za.com
www.881ze.com
www.881bi.com
www.881bu.com
www.881ci.com
www.881cu.com
www.881du.com
www.881er.com
www.881fo.com
www.881gu.com
www.881ju.com
www.881ku.com
www.881mo.com
www.881nu.com
www.881nv.com
www.881po.com
www.881pu.com
www.881qu.com
www.881si.com
www.881su.com
www.881tu.com
www.881wo.com
www.881wu.com
www.881xu.com
www.881yo.com
www.881zi.com
www.881zu.com
www.882an.com
www.882ba.com
www.882ca.com
www.882ce.com
www.882da.com
www.882de.com
www.882di.com
www.882en.com
www.882fa.com
www.882ge.com
www.882he.com
www.882ke.com
www.882na.com
www.882ne.com
www.882pa.com
www.882pi.com
www.882qi.com
www.882te.com
www.882ti.com
www.882xi.com
www.882ye.com
www.882za.com
www.882ze.com
www.882bi.com
www.882bu.com
www.882ci.com
www.882cu.com
www.882du.com
www.882er.com
www.882fo.com
www.882gu.com
www.882ju.com
www.882ku.com
www.882mi.com
www.882nu.com
www.882nv.com
www.882po.com
www.882qu.com
www.882si.com
www.882su.com
www.882wo.com
www.882wu.com
www.882xu.com
www.882yo.com
www.882zi.com
www.882zu.com
www.883an.com
www.883ce.com
www.883da.com
www.883de.com
www.883di.com
www.883en.com
www.883fa.com
www.883ge.com
www.883he.com
www.883ke.com
www.883na.com
www.883ne.com
www.883pa.com
www.883pi.com
www.883qi.com
www.883ri.com
www.883sa.com
www.883ta.com
www.883te.com
www.883ti.com
www.883wa.com
www.883xi.com
www.883ye.com
www.883za.com
www.883ze.com
www.883bi.com
www.883bo.com
www.883bu.com
www.883ci.com
www.883cu.com
www.883du.com
www.883er.com
www.883fo.com
www.883fu.com
www.883gu.com
www.883ju.com
www.883ku.com
www.883mi.com
www.883mo.com
www.883nu.com
www.883nv.com
www.883po.com
www.883pu.com
www.883qu.com
www.883si.com
www.883su.com
www.883wo.com
www.883wu.com
www.883xu.com
www.883yo.com
www.883zi.com
www.883zu.com
www.885ca.com
www.885ce.com
www.885di.com
www.885na.com
www.885ne.com
www.885pi.com
www.885qi.com
www.885ri.com
www.885sa.com
www.885ti.com
www.885xi.com
www.885za.com
www.885ze.com
www.885ci.com
www.885cu.com
www.885er.com
www.885fo.com
www.885ju.com
www.885mo.com
www.885nu.com
www.885nv.com
www.885si.com
www.885su.com
www.885yo.com
www.885zi.com
www.885zu.com
www.886ce.com
www.886na.com
www.886ne.com
www.886pi.com
www.886sa.com
www.886ti.com
www.886za.com
www.886ze.com
www.886bi.com
www.886ci.com
www.886cu.com
www.886er.com
www.886fo.com
www.886ju.com
www.886ku.com
www.886nu.com
www.886nv.com
www.886po.com
www.886si.com
www.886zi.com
www.886zu.com
www.887an.com
www.887ca.com
www.887ce.com
www.887da.com
www.887di.com
www.887ge.com
www.887he.com
www.887ke.com
www.887na.com
www.887ne.com
www.887pa.com
www.887pi.com
www.887qi.com
www.887re.com
www.887ri.com
www.887sa.com
www.887ta.com
www.887te.com
www.887ti.com
www.887wa.com
www.887xi.com
www.887ya.com
www.887ye.com
www.887yi.com
www.887za.com
www.887ze.com
www.887bi.com
www.887bu.com
www.887ci.com
www.887cu.com
www.887du.com
www.887er.com
www.887fo.com
www.887gu.com
www.887hu.com
www.887ju.com
www.887ku.com
www.887mo.com
www.887nu.com
www.887nv.com
www.887po.com
www.887pu.com
www.887qu.com
www.887si.com
www.887xu.com
www.887zi.com
www.887zu.com
www.889ca.com
www.889ce.com
www.889ge.com
www.889na.com
www.889pi.com
www.889qi.com
www.889ri.com
www.889ti.com
www.889xi.com
www.889za.com
www.889ze.com
www.889ci.com
www.889cu.com
www.889er.com
www.889fo.com
www.889ju.com
www.889ku.com
www.889mo.com
www.889nu.com
www.889nv.com
www.889po.com
www.889si.com
www.889yo.com
www.889zi.com
www.889zu.com
www.227zh.com
www.124zh.com
www.299zh.com
www.194zh.com
www.388zh.com
www.424zh.com
www.335zh.com
www.219zh.com
www.216zh.com
www.645zh.com
www.260zh.com
www.529zh.com
www.436zh.com
www.210zh.com
www.150zh.com
www.553zh.com
www.493zh.com
www.625zh.com
www.610zh.com
www.628zh.com
www.599zh.com
www.257zh.com
www.389zh.com
www.551zh.com
www.378zh.com
www.368zh.com
www.595zh.com
www.532zh.com
www.545zh.com
www.611zh.com
www.398zh.com
www.164zh.com
www.653zh.com
www.233zh.com
www.531zh.com
www.271zh.com
www.577zh.com
www.209zh.com
www.441zh.com
www.663zh.com
www.429zh.com
www.302zh.com
www.327zh.com
www.171zh.com
www.546zh.com
www.223zh.com
www.554zh.com
www.459zh.com
www.313zh.com
www.528zh.com
www.608zh.com
www.471zh.com
www.466zh.com
www.530zh.com
www.392zh.com
www.367zh.com
www.496zh.com
www.570zh.com
www.306zh.com
www.196zh.com
www.143zh.com
www.660zh.com
www.192zh.com
www.468zh.com
www.407zh.com
www.217zh.com
www.152zh.com
www.186zh.com
www.167zh.com
www.527zh.com
www.481zh.com
www.636zh.com
www.355zh.com
www.613zh.com
www.121zh.com
www.290zh.com
www.262zh.com
www.452zh.com
www.293zh.com
www.497zh.com
www.670zh.com
www.574zh.com
www.276zh.com
www.229zh.com
www.195zh.com
www.585zh.com
www.325zh.com
www.316zh.com
www.244zh.com
www.473zh.com
www.211zh.com
www.137zh.com
www.187zh.com
www.254zh.com
www.644zh.com
www.631zh.com
www.438zh.com
www.635zh.com
www.655zh.com
www.403zh.com
www.347zh.com
www.538zh.com
www.680zh.com
www.541zh.com
www.245zh.com
www.458zh.com
www.622zh.com
www.485zh.com
www.445zh.com
www.160zh.com
www.442zh.com
www.151zh.com
www.248zh.com
www.418zh.com
www.126zh.com
www.515zh.com
www.252zh.com
www.122zh.com
www.232zh.com
www.417zh.com
www.269zh.com
www.562zh.com
www.412zh.com
www.634zh.com
www.377zh.com
www.474zh.com
www.501zh.com
www.526zh.com
www.659zh.com
www.482zh.com
www.582zh.com
www.264zh.com
www.350zh.com
www.317zh.com
www.440zh.com
www.650zh.com
www.373zh.com
www.357zh.com
www.651zh.com
www.619zh.com
www.303zh.com
www.410zh.com
www.218zh.com
www.498zh.com
www.172zh.com
www.305zh.com
www.292zh.com
www.374zh.com
www.434zh.com
www.203zh.com
www.140zh.com
www.130zh.com
www.552zh.com
www.643zh.com
www.224zh.com
www.503zh.com
www.174zh.com
www.215zh.com
www.382zh.com
www.559zh.com
www.557zh.com
www.603zh.com
www.328zh.com
www.221zh.com
www.159zh.com
www.181zh.com
www.154zh.com
www.447zh.com
www.144zh.com
www.587zh.com
www.535zh.com
www.340zh.com
www.295zh.com
www.561zh.com
www.266zh.com
www.524zh.com
www.394zh.com
www.376zh.com
www.453zh.com
www.676zh.com
www.341zh.com
www.550zh.com
www.348zh.com
www.285zh.com
www.304zh.com
www.422zh.com
www.508zh.com
www.381zh.com
www.426zh.com
www.539zh.com
www.683zh.com
www.165zh.com
www.627zh.com
www.116zh.com
www.356zh.com
www.343zh.com
www.235zh.com
www.571zh.com
www.239zh.com
www.363zh.com
www.483zh.com
www.638zh.com
www.402zh.com
www.467zh.com
www.207zh.com
www.475zh.com
www.319zh.com
www.390zh.com
www.669zh.com
www.488zh.com
www.249zh.com
www.415zh.com
www.427zh.com
www.201zh.com
www.432zh.com
www.544zh.com
www.543zh.com
www.566zh.com
www.421zh.com
www.344zh.com
www.640zh.com
www.395zh.com
www.149zh.com
www.318zh.com
www.131zh.com
www.565zh.com
www.190zh.com
www.384zh.com
www.507zh.com
www.125zh.com
www.572zh.com
www.161zh.com
www.506zh.com
www.495zh.com
www.198zh.com
www.399zh.com
www.606zh.com
www.556zh.com
www.637zh.com
www.593zh.com
www.677zh.com
www.431zh.com
www.487zh.com
www.632zh.com
www.136zh.com
www.470zh.com
www.575zh.com
www.383zh.com
www.534zh.com
www.268zh.com
www.142zh.com
www.489zh.com
www.414zh.com
www.139zh.com
www.681zh.com
www.353zh.com
www.237zh.com
www.490zh.com
www.639zh.com
www.326zh.com
www.672zh.com
www.225zh.com
www.648zh.com
www.549zh.com
www.423zh.com
www.542zh.com
www.280zh.com
www.443zh.com
www.147zh.com
www.220zh.com
www.626zh.com
www.349zh.com
www.312zh.com
www.664zh.com
www.547zh.com
www.379zh.com
www.320zh.com
www.371zh.com
www.375zh.com
www.455zh.com
www.658zh.com
www.277zh.com
www.380zh.com
www.308zh.com
www.652zh.com
www.502zh.com
www.454zh.com
www.396zh.com
www.214zh.com
www.298zh.com
www.457zh.com
www.525zh.com
www.420zh.com
www.241zh.com
www.393zh.com
www.261zh.com
www.337zh.com
www.208zh.com
www.179zh.com
www.536zh.com
www.184zh.com
www.479zh.com
www.162zh.com
www.411zh.com
www.272zh.com
www.330zh.com
www.183zh.com
www.193zh.com
www.284zh.com
www.602zh.com
www.533zh.com
www.437zh.com
www.661zh.com
www.294zh.com
www.401zh.com
www.614zh.com
www.206zh.com
www.413zh.com
www.323zh.com
www.258zh.com
www.405zh.com
www.586zh.com
www.342zh.com
www.391zh.com
www.204zh.com
www.157zh.com
www.425zh.com
www.250zh.com
www.310zh.com
www.243zh.com
www.397zh.com
www.387zh.com
www.465zh.com
www.370zh.com
www.478zh.com
www.656zh.com
www.584zh.com
www.273zh.com
www.146zh.com
www.609zh.com
www.647zh.com
www.612zh.com
www.435zh.com
www.287zh.com
www.499zh.com
www.346zh.com
www.354zh.com
www.240zh.com
www.464zh.com
www.620zh.com
www.505zh.com
www.145zh.com
www.662zh.com
www.274zh.com
www.641zh.com
www.564zh.com
www.132zh.com
www.332zh.com
www.267zh.com
www.576zh.com
www.253zh.com
www.197zh.com
www.364zh.com
www.282zh.com
www.519zh.com
www.480zh.com
www.311zh.com
www.236zh.com
www.615zh.com
www.509zh.com
www.523zh.com
www.617zh.com
www.409zh.com
www.331zh.com
www.460zh.com
www.191zh.com
www.560zh.com
www.604zh.com
www.674zh.com
www.372zh.com
www.667zh.com
www.322zh.com
www.213zh.com
www.336zh.com
www.477zh.com
www.605zh.com
www.486zh.com
www.291zh.com
www.352zh.com
www.646zh.com
www.623zh.com
www.472zh.com
www.461zh.com
www.289zh.com
www.170zh.com
www.314zh.com
www.568zh.com
www.462zh.com
www.665zh.com
www.155zh.com
www.281zh.com
www.675zh.com
www.510zh.com
www.247zh.com
www.671zh.com
www.630zh.com
www.450zh.com
www.579zh.com
www.324zh.com
www.449zh.com
www.129zh.com
www.492zh.com
www.589zh.com
www.148zh.com
www.581zh.com
www.408zh.com
www.433zh.com
www.416zh.com
www.682zh.com
www.242zh.com
www.673zh.com
www.590zh.com
www.451zh.com
www.594zh.com
www.679zh.com
www.522zh.com
www.624zh.com
www.259zh.com
www.141zh.com
www.251zh.com
www.301zh.com
www.469zh.com
www.563zh.com
www.385zh.com
www.153zh.com
www.504zh.com
www.212zh.com
www.238zh.com
www.649zh.com
www.279zh.com
www.607zh.com
www.275zh.com
www.621zh.com
www.601zh.com
www.616zh.com
www.228zh.com
www.265zh.com
www.406zh.com
www.540zh.com
www.463zh.com
www.428zh.com
www.430zh.com
www.338zh.com
www.230zh.com
www.182zh.com
www.491zh.com
www.175zh.com
www.642zh.com
www.657zh.com
www.548zh.com
www.633zh.com
www.297zh.com
www.654zh.com
www.629zh.com
www.309zh.com
www.278zh.com
www.404zh.com
www.117zh.com
www.286zh.com
www.583zh.com
www.362zh.com
www.448zh.com
www.135zh.com
www.439zh.com
www.446zh.com
www.329zh.com
www.283zh.com
www.127zh.com
www.537zh.com
www.569zh.com
www.476zh.com
www.202zh.com
www.484zh.com
www.976zh.com
www.899zh.com
www.990zh.com
www.736zh.com
www.821zh.com
www.993zh.com
www.979zh.com
www.878zh.com
www.944zh.com
www.708zh.com
www.799zh.com
www.801zh.com
www.963zh.com
www.869zh.com
www.805zh.com
www.716zh.com
www.966zh.com
www.880zh.com
www.730zh.com
www.970zh.com
www.846zh.com
www.807zh.com
www.937zh.com
www.784zh.com
www.843zh.com
www.851zh.com
www.964zh.com
www.738zh.com
www.853zh.com
www.701zh.com
www.783zh.com
www.715zh.com
www.780zh.com
www.905zh.com
www.932zh.com
www.802zh.com
www.839zh.com
www.724zh.com
www.684zh.com
www.895zh.com
www.686zh.com
www.700zh.com
www.719zh.com
www.950zh.com
www.771zh.com
www.749zh.com
www.996zh.com
www.798zh.com
www.831zh.com
www.959zh.com
www.779zh.com
www.721zh.com
www.917zh.com
www.819zh.com
www.916zh.com
www.873zh.com
www.919zh.com
www.712zh.com
www.782zh.com
www.832zh.com
www.754zh.com
www.925zh.com
www.806zh.com
www.861zh.com
www.776zh.com
www.812zh.com
www.768zh.com
www.850zh.com
www.775zh.com
www.745zh.com
www.982zh.com
www.794zh.com
www.766zh.com
www.690zh.com
www.985zh.com
www.702zh.com
www.967zh.com
www.948zh.com
www.891zh.com
www.844zh.com
www.767zh.com
www.857zh.com
www.954zh.com
www.940zh.com
www.796zh.com
www.813zh.com
www.747zh.com
www.703zh.com
www.898zh.com
www.758zh.com
www.904zh.com
www.956zh.com
www.837zh.com
www.924zh.com
www.804zh.com
www.908zh.com
www.718zh.com
www.856zh.com
www.882zh.com
www.992zh.com
www.772zh.com
www.912zh.com
www.854zh.com
www.714zh.com
www.939zh.com
www.722zh.com
www.828zh.com
www.691zh.com
www.753zh.com
www.726zh.com
www.825zh.com
www.876zh.com
www.699zh.com
www.961zh.com
www.927zh.com
www.816zh.com
www.983zh.com
www.910zh.com
www.981zh.com
www.969zh.com
www.841zh.com
www.946zh.com
www.862zh.com
www.717zh.com
www.781zh.com
www.942zh.com
www.890zh.com
www.984zh.com
www.867zh.com
www.945zh.com
www.978zh.com
www.695zh.com
www.884zh.com
www.752zh.com
www.907zh.com
www.928zh.com
www.707zh.com
www.847zh.com
www.943zh.com
www.817zh.com
www.751zh.com
www.760zh.com
www.731zh.com
www.947zh.com
www.864zh.com
www.741zh.com
www.808zh.com
www.795zh.com
www.900zh.com
www.820zh.com
www.773zh.com
www.829zh.com
www.761zh.com
www.980zh.com
www.949zh.com
www.704zh.com
www.893zh.com
www.836zh.com
www.750zh.com
www.765zh.com
www.732zh.com
www.931zh.com
www.971zh.com
www.743zh.com
www.762zh.com
www.685zh.com
www.814zh.com
www.748zh.com
www.951zh.com
www.872zh.com
www.994zh.com
www.696zh.com
www.791zh.com
www.815zh.com
www.859zh.com
www.955zh.com
www.755zh.com
www.725zh.com
www.975zh.com
www.693zh.com
www.793zh.com
www.835zh.com
www.933zh.com
www.763zh.com
www.689zh.com
www.972zh.com
www.842zh.com
www.923zh.com
www.858zh.com
www.974zh.com
www.729zh.com
www.936zh.com
www.792zh.com
www.728zh.com
www.965zh.com
www.746zh.com
www.790zh.com
www.995zh.com
www.958zh.com
www.879zh.com
www.957zh.com
www.742zh.com
www.952zh.com
www.759zh.com
www.694zh.com
www.687zh.com
www.930zh.com
www.709zh.com
www.803zh.com
www.824zh.com
www.840zh.com
www.934zh.com
www.903zh.com
www.973zh.com
www.809zh.com
www.868zh.com
www.962zh.com
www.849zh.com
www.787zh.com
www.757zh.com
www.797zh.com
www.810zh.com
www.713zh.com
www.830zh.com
www.723zh.com
www.769zh.com
www.896zh.com
www.987zh.com
www.863zh.com
www.874zh.com
www.756zh.com
www.989zh.com
www.897zh.com
www.902zh.com
www.845zh.com
www.711zh.com
www.991zh.com
www.953zh.com
www.915zh.com
www.911zh.com
www.823zh.com
www.935zh.com
www.926zh.com
www.860zh.com
www.706zh.com
www.764zh.com
www.833zh.com
www.922zh.com
www.871zh.com
www.901zh.com
www.785zh.com
www.827zh.com
www.909zh.com
www.941zh.com
www.770zh.com
www.913zh.com
www.692zh.com
www.734zh.com
www.938zh.com
www.929zh.com
www.774zh.com
www.870zh.com
www.986zh.com
www.727zh.com
www.733zh.com
www.834zh.com
www.977zh.com
www.737zh.com
www.852zh.com
www.914zh.com
www.705zh.com
www.740zh.com
www.744zh.com
www.735zh.com